<?xml version="1.0" standalone="no"?>
<!DOCTYPE svg PUBLIC "-//W3C//DTD SVG 1.1//EN" "http://www.w3.org/Graphics/SVG/1.1/DTD/svg11.dtd">
<svg xmlns="http://www.w3.org/2000/svg">
<metadata>Generated by Fontastic.me</metadata>
<defs>
<font id="untitled-font-3" horiz-adv-x="512">
<font-face font-family="untitled-font-3" units-per-em="512" ascent="480" descent="-32"/>
<missing-glyph horiz-adv-x="512" />

<glyph glyph-name="auto-delivery" unicode="&#97;" d="M505 144l-16 0 0 89c0 11-3 21-9 30l-40 59c-9 14-26 23-43 23l-62 0c-8 0-14-6-14-13l0-188-101 0c9-9 16-20 18-33l107 0c4 26 26 46 54 46 27 0 49-20 53-46l53 0c4 0 7 3 7 6l0 20c0 4-3 7-7 7z m-65 107l-82 0c-4 0-7 3-7 6l0 46c0 3 3 6 7 6l50 0c2 0 4-1 5-2l32-46c3-4 0-10-5-10z m-41-107c-23 0-41-19-41-41 0-23 18-41 41-41 22 0 41 18 41 41 0 22-19 41-41 41z m0-62c-12 0-21 9-21 21 0 11 9 20 21 20 11 0 20-9 20-20 0-12-9-21-20-21z m-342 62c-3 0-6-3-6-7l0-20c0-3 3-6 6-6l74 0c2 13 8 24 18 33l-92 0z m127 0c-22 0-41-19-41-41 0-23 19-41 41-41 23 0 41 18 41 41 0 22-18 41-41 41z m0-62c-11 0-20 9-20 21 0 11 9 20 20 20 12 0 21-9 21-20 0-12-9-21-21-21z m99 304l-77 0c4-11 6-23 6-35 0-62-50-113-112-113-12 0-23 2-33 5l0-73c0-4 3-7 6-7l223 0c4 0 7 3 7 7l0 196c0 11-9 20-20 20z m-183 64c-55 0-100-44-100-99 0-55 45-100 100-100 55 0 99 45 99 100 0 55-44 99-99 99z m0-176c-43 0-77 34-77 77 0 42 34 77 77 77 42 0 76-35 76-77 0-43-34-77-76-77z m29 60c-1 0-2 1-3 1l-32 8c-4 2-7 5-7 10l0 49c0 6 4 10 10 10 5 0 10-4 10-10l0-41 24-7c6-2 9-7 7-12-1-5-5-8-9-8z"/>
</font></defs></svg>
